<?xml version="1.0" encoding="utf-8"?>
<!-- Generator: Adobe Illustrator 24.0.1, SVG Export Plug-In . SVG Version: 6.00 Build 0)  -->
<svg version="1.1" id="Layer_1" xmlns="http://www.w3.org/2000/svg" xmlns:xlink="http://www.w3.org/1999/xlink" x="0px" y="0px"
	 viewBox="0 0 512 512" style="enable-background:new 0 0 512 512;" xml:space="preserve">
<style type="text/css">
	.st0{fill:#4481EB;}
	.st1{fill:#04BEFE;}
</style>
<title>fav-iconePlan de travail 1</title>
<path class="st0" d="M510.1,195.3c4.5,13.8,0.8,29-9.7,39.1l-91.7,89.3c-1.8,1.8-2.6,4.3-2.2,6.8l21.6,126.1
	c3.6,20.7-10.3,40.5-31,44.1c-8.3,1.5-16.9,0.1-24.4-3.9l-113.3-59.6c-2.2-1.2-4.9-1.2-7.1,0l-113.3,59.6
	c-18.7,9.8-41.7,2.6-51.6-16c-3.9-7.4-5.3-15.9-3.8-24.2l21.6-126.1c0.4-2.5-0.4-5-2.2-6.8l-91.7-89.3c-15.1-14.7-15.4-38.9-0.7-54
	c5.9-6,13.5-9.9,21.8-11.1l126.7-18.4c2.5-0.4,4.6-1.9,5.7-4.2l56.6-114.8C231.1,13,254,5.3,272.9,14.6c7.5,3.7,13.6,9.8,17.3,17.3
	l56.7,114.8c1.1,2.3,3.3,3.8,5.7,4.2l126.7,18.4C493.7,171.3,505.7,181.4,510.1,195.3z M479.1,212.5c3-2.9,3.1-7.8,0.2-10.8
	c-1.2-1.2-2.7-2-4.4-2.2l-126.6-18.4c-12.4-1.8-23.2-9.6-28.8-20.9L262.9,45.5c-0.7-1.6-2-2.8-3.6-3.6c-1-0.5-2.1-0.7-3.3-0.7
	c-2.9,0-5.6,1.6-6.8,4.2l-56.7,114.8c-5.6,11.3-16.3,19.1-28.7,20.9L37.1,199.5c-4.2,0.6-7.1,4.5-6.4,8.7c0.2,1.7,1,3.2,2.2,4.4
	l91.7,89.3c9,8.8,13.1,21.4,11,33.8l-21.6,126.1c-0.7,4.2,2.1,8.1,6.2,8.8c1.7,0.3,3.4,0,4.8-0.8l113.3-59.6
	c11.1-5.9,24.4-5.9,35.5,0l113.3,59.6c3.7,2,8.3,0.5,10.3-3.2c0.8-1.5,1-3.2,0.8-4.8l-21.6-126.1c-2.1-12.4,2-25,11-33.8
	L479.1,212.5z"/>
<path class="st1" d="M481.1,204.7c0.9,2.8,0.2,5.8-1.9,7.8l-91.7,89.3c-9,8.8-13.1,21.4-11,33.8l21.6,126.1c0.7,4.2-2.1,8.1-6.2,8.8
	c-1.7,0.3-3.4,0-4.8-0.8l-113.3-59.6c-11.1-5.9-24.4-5.9-35.5,0l-113.3,59.6c-3.7,2-8.4,0.5-10.3-3.2c-0.8-1.5-1.1-3.2-0.8-4.8
	l21.6-126.1c2.1-12.4-2-25-11-33.8l-91.7-89.3c-3-2.9-3.1-7.8-0.1-10.8c1.2-1.2,2.7-2,4.4-2.2l126.7-18.4
	c12.4-1.8,23.2-9.6,28.7-20.9l56.7-114.8c1.3-2.6,3.9-4.3,6.8-4.2c1.1,0,2.2,0.2,3.3,0.7c1.6,0.7,2.9,2,3.6,3.6l56.6,114.8
	c5.6,11.3,16.3,19.1,28.8,20.9l126.6,18.4C477.8,199.9,480.2,201.9,481.1,204.7z"/>
</svg>
