<?xml version="1.0" encoding="utf-8"?>
<!-- Generator: Adobe Illustrator 24.0.1, SVG Export Plug-In . SVG Version: 6.00 Build 0)  -->
<svg version="1.1" id="Calque_1" xmlns="http://www.w3.org/2000/svg" xmlns:xlink="http://www.w3.org/1999/xlink" x="0px" y="0px"
	 viewBox="0 0 492 492" style="enable-background:new 0 0 492 492;" xml:space="preserve">
<style type="text/css">
	.st0{fill:#2C2F33;}
	.st1{fill:#555564;}
</style>
<title>iconeSed5Plan de travail 1</title>
<path class="st0" d="M69.8,451H53.2c-6.7,0-12.2-5.5-12.2-12.2V53.2C41,46.5,46.5,41,53.2,41h16.6C76.5,41,82,35.5,82,28.8
	c0,0,0,0,0,0V12.2C82,5.5,76.5,0,69.8,0c0,0,0,0,0,0H12.2C5.5,0,0,5.5,0,12.2v467.6c0,6.7,5.5,12.2,12.2,12.2h57.6
	c6.7,0,12.2-5.5,12.2-12.2v-16.6C82,456.5,76.5,451,69.8,451z"/>
<path class="st0" d="M420.5,41h20c5.8,0,10.5,4.7,10.5,10.5v0v389c0,5.8-4.7,10.5-10.5,10.5l0,0h-20c-5.8,0-10.5,4.7-10.5,10.5l0,0
	v20c0,5.8,4.7,10.5,10.5,10.5l0,0h61c5.8,0,10.5-4.7,10.5-10.5l0,0v-471C492,4.7,487.3,0,481.5,0c0,0,0,0,0,0h-61
	C414.7,0,410,4.7,410,10.5c0,0,0,0,0,0v20C410,36.3,414.7,41,420.5,41L420.5,41z"/>
<path class="st1" d="M135.4,410h221.3c6.8,0,12.4-5.5,12.4-12.4c0,0,0,0,0,0v-57.3c0-6.8-5.5-12.4-12.4-12.4c0,0,0,0,0,0h-16.3
	c-6.8,0-12.4,5.5-12.4,12.4c0,0,0,0,0,0v16.3c0,6.8-5.5,12.4-12.4,12.4H205.7c-6.8,0-12.4-5.5-12.4-12.4c0-2.9,1-5.8,2.9-8
	l80.1-94.6c3.9-4.6,3.9-11.4,0-16l-80.1-94.6c-4.4-5.2-3.8-13,1.5-17.4c2.2-1.9,5.1-2.9,8-2.9h109.9c6.8,0,12.4,5.5,12.4,12.4v16.3
	c0,6.8,5.5,12.4,12.4,12.4c0,0,0,0,0,0h16.3c6.8,0,12.4-5.5,12.4-12.4V94.4c0-6.8-5.5-12.4-12.4-12.4l0,0H135.4
	c-6.8,0-12.4,5.5-12.4,12.4v21.3c0,2.9,1,5.8,2.9,8L222.6,238c3.9,4.6,3.9,11.4,0,16l-96.7,114.3c-1.9,2.2-2.9,5.1-2.9,8v21.3
	C123,404.5,128.5,410,135.4,410L135.4,410z"/>
</svg>
