<?xml version="1.0" encoding="utf-8"?>
<!-- Generator: Adobe Illustrator 22.0.1, SVG Export Plug-In . SVG Version: 6.00 Build 0)  -->
<svg version="1.1" id="Capa_1" xmlns="http://www.w3.org/2000/svg" xmlns:xlink="http://www.w3.org/1999/xlink" x="0px" y="0px"
	 viewBox="0 0 492 492" style="enable-background:new 0 0 492 492;" xml:space="preserve">
<style type="text/css">
	.st0{fill:url(#SVGID_1_);}
	.st1{fill:#FFFFFF;}
	.st2{fill:url(#SVGID_2_);}
</style>
<g id="Calque_3">
	
		<linearGradient id="SVGID_1_" gradientUnits="userSpaceOnUse" x1="22.8156" y1="1057.2031" x2="471.2219" y2="608.7969" gradientTransform="matrix(1 0 0 1 0 -586)">
		<stop  offset="0" style="stop-color:#E5007D"/>
		<stop  offset="1" style="stop-color:#E94C16"/>
	</linearGradient>
	<path class="st0" d="M418.6,1H75.4C34.4,1,1,34.3,1,75.4v343.2C1,459.7,34.4,493,75.4,493h343.2c41.1,0,74.4-33.3,74.4-74.4V75.4
		C493,34.3,459.7,1,418.6,1z"/>
	<path class="st1" d="M404.8,20.5H89c-37.8,0-68.5,30.7-68.5,68.5v316c0,37.7,30.7,68.5,68.5,68.5h316c37.7,0,68.5-30.7,68.5-68.5
		V89C473.4,51.3,442.6,20.5,404.8,20.5z"/>
	
		<linearGradient id="SVGID_2_" gradientUnits="userSpaceOnUse" x1="49.6844" y1="1030.2969" x2="444.2281" y2="635.7531" gradientTransform="matrix(1 0 0 1 0 -586)">
		<stop  offset="0" style="stop-color:#E5007D"/>
		<stop  offset="1" style="stop-color:#E94C16"/>
	</linearGradient>
	<path class="st2" d="M397.8,30.5H96c-36.2,0-65.5,29.3-65.5,65.5v302c0,36.1,29.3,65.5,65.5,65.5h302c36.1,0,65.5-29.3,65.5-65.5
		V96C463.4,59.9,434,30.5,397.8,30.5z"/>
</g>
<g>
	<g>
		<path class="st1" d="M393,85H99c-7.7,0-14,6.3-14,14v294c0,7.7,6.3,14,14,14h294c7.7,0,14-6.3,14-14V99C407,91.3,400.7,85,393,85z
			 M197,309v-70h98v70H197z M295,323v70h-98v-70H295z M295,155v70h-98v-70H295z M393,155v70h-84v-70H393z M183,225H99v-70h84V225
			L183,225z M99,239h84v70H99V239z M309,239h84v70h-84V239z M393,99v42H99V99H393z M99,323h84v70H99V323z M309,393v-70h84v70H309z"
			/>
	</g>
</g>
</svg>
